{
    "realm": "logisense",
    "realm-public-key": "${logisense.realm.public.key}",
    "auth-server-url": "${logisense.auth.url}",
    "ssl-required": "external",
    "resource": "plango-out",
    "credentials": {
        "secret": "${logisense.plango-out.secret}"
    }
}